<?xml version="1.0" encoding="UTF-8" standalone="no"?>
<svg
   xmlns:dc="http://purl.org/dc/elements/1.1/"
   xmlns:cc="http://creativecommons.org/ns#"
   xmlns:rdf="http://www.w3.org/1999/02/22-rdf-syntax-ns#"
   xmlns:svg="http://www.w3.org/2000/svg"
   xmlns="http://www.w3.org/2000/svg"
   xmlns:sodipodi="http://sodipodi.sourceforge.net/DTD/sodipodi-0.dtd"
   xmlns:inkscape="http://www.inkscape.org/namespaces/inkscape"
   version="1.0"
   width="730.29999pt"
   height="797.33179pt"
   viewBox="0 0 730.29999 797.33179"
   preserveAspectRatio="xMidYMid meet"
   id="svg3336"
   inkscape:version="0.91 r13725"
   sodipodi:docname="Converted_file_3043e5cd.svg">
  <defs
     id="defs3388" />
  <sodipodi:namedview
     pagecolor="#ffffff"
     bordercolor="#666666"
     borderopacity="1"
     objecttolerance="10"
     gridtolerance="10"
     guidetolerance="10"
     inkscape:pageopacity="0"
     inkscape:pageshadow="2"
     inkscape:window-width="3440"
     inkscape:window-height="1377"
     id="namedview3386"
     showgrid="false"
     fit-margin-top="0"
     fit-margin-left="0"
     fit-margin-right="0"
     fit-margin-bottom="0"
     inkscape:zoom="0.75909993"
     inkscape:cx="-461.16897"
     inkscape:cy="422.45268"
     inkscape:window-x="-8"
     inkscape:window-y="-8"
     inkscape:window-maximized="1"
     inkscape:current-layer="svg3336" />
  <metadata
     id="metadata3338">
Created by potrace 1.13, written by Peter Selinger 2001-2015
<rdf:RDF>
  <cc:Work
     rdf:about="">
    <dc:format>image/svg+xml</dc:format>
    <dc:type
       rdf:resource="http://purl.org/dc/dcmitype/StillImage" />
    <dc:title></dc:title>
  </cc:Work>
</rdf:RDF>
</metadata>
  <path
     style="fill:#fff;stroke:none;fill-opacity:1"
     inkscape:connector-curvature="0"
     id="path3342"
     d="m 394.3,29.3 0,29.3 21.3,1.2 c 40.5,2.4 66.1,8.8 98.3,24.8 l 13.2,6.5 14.3,-4.6 c 29.3,-9.5 49.5,-21.6 53.5,-32 1.6,-4.2 1.6,-4.8 0,-9 C 592.6,39.5 586.3,34.1 575,28.6 539.7,11.3 474.2,0.1 408.1,0 l -13.8,0 0,29.3 z" />
  <path
     style="fill:#fff;stroke:none;fill-opacity:1"
     inkscape:connector-curvature="0"
     id="path3344"
     d="m 608.1,58.7 c -5.6,12.5 -25.3,25.2 -56.8,36.6 -17.4,6.3 -30.4,9.9 -53,14.7 -74.9,15.9 -98.9,27.9 -84,42.1 13.9,13.2 54.1,24.4 159,44.4 7.4,1.4 18.6,4 24.8,5.7 6.2,1.7 11.5,2.8 11.7,2.6 0.3,-0.3 0.4,-34.1 0.3,-75.3 -0.3,-71.9 -0.4,-74.6 -2,-70.8 z" />
  <path
     style="fill:#fff;stroke:none;fill-opacity:1"
     inkscape:connector-curvature="0"
     id="path3346"
     d="m 394.3,289.4 0,134.6 17.3,0 c 56.6,0 123.7,-7.4 171.3,-19 75.2,-18.2 118.4,-47.3 127,-85.6 8.8,-39.6 -24,-71.6 -98.2,-95.8 -25.5,-8.3 -47.4,-13.5 -89.4,-21.5 -41.7,-7.9 -68.8,-15.1 -90.8,-23.9 -15.3,-6.2 -23.8,-11 -31.2,-17.9 l -6,-5.5 0,134.6 z" />
  <path
     style="fill:#fff;stroke:none;fill-opacity:1"
     inkscape:connector-curvature="0"
     id="path3360"
     d="m 729.5,320.4 c -0.6,5.4 -3.8,15.9 -6.7,22.2 -12.5,27.4 -37.4,47.1 -82,64.7 -44.9,17.8 -97.1,27.8 -172,33.2 -20,1.4 -61.2,3.5 -70.2,3.5 l -4.3,0 0,49.6 0,49.7 12.3,-0.7 c 25.8,-1.4 71.8,-5.6 78.7,-7.2 2.3,-0.5 2.3,-0.4 0.9,1.3 -0.9,1 -16.6,18.8 -34.9,39.7 l -33.2,37.8 2.3,2.3 c 1.3,1.3 17.3,14.8 35.4,30 18.2,15.2 33.1,28 33.3,28.4 0.6,1.7 -50.8,10.5 -83.3,14.3 l -11,1.3 -0.3,46.4 -0.2,46.3 5.2,-0.7 c 14.1,-1.8 53.9,-8.9 70.6,-12.6 50.7,-11.2 90.2,-24.6 130.7,-44.5 72.6,-35.6 109.8,-68.1 122.9,-107.6 5.8,-17.1 5.9,-18 6.2,-65.3 l 0.4,-44 -3.8,10.5 c -17.9,49.3 -50.7,83.1 -109.3,112.5 -26.1,13.1 -50.3,22.7 -79.6,31.6 -9,2.7 -16.5,4.9 -16.8,4.9 -1.3,0 -66,-55.4 -65.9,-56.5 0.1,-0.7 16.1,-19.4 35.7,-41.7 l 35.5,-40.3 21.8,-4.4 c 38.4,-7.6 53.9,-12.8 87.9,-29.6 58.5,-28.9 85.7,-55.8 92.9,-92 1.4,-6.7 1.6,-14.3 1.4,-46.5 -0.2,-21.2 -0.4,-37.6 -0.6,-36.6 z" />
  <path
     style="fill:#fff;stroke:none;fill-opacity:1"
     inkscape:connector-curvature="0"
     id="path3362"
     d="m 31.8,435.2 c 3.8,3.5 30.2,27.7 58.8,53.9 l 51.9,47.6 8.2,0.7 c 35.7,2.7 88.6,5.7 89.8,5 0.4,-0.3 0.8,-22.7 0.8,-49.9 l 0,-49.3 -10.2,-0.6 c -5.7,-0.3 -16.4,-0.8 -23.8,-1.1 -43.7,-1.8 -104.9,-5.9 -152.5,-10 -15.4,-1.4 -28.4,-2.5 -28.9,-2.5 -0.5,0 2.2,2.8 5.9,6.2 z" />
  <path
     style="fill:#fff;stroke:none;fill-opacity:1"
     inkscape:connector-curvature="0"
     id="path3364"
     d="m 249.3,443.5 c 0,0.9 67.2,76.5 68,76.5 0.6,0 65.3,-70.7 67.6,-73.9 1.1,-1.4 -4,-1.6 -53,-1.7 -29.7,-0.1 -60.5,-0.4 -68.3,-0.8 -7.9,-0.5 -14.3,-0.5 -14.3,-0.1 z" />
  <path
     style="fill:#fff;stroke:none;fill-opacity:1"
     inkscape:connector-curvature="0"
     id="path3382"
     d="M 66.9,742.3 0,795.5 l 12.9,0.9 c 17.1,1.1 199.3,1.3 215.7,0.2 l 12.7,-0.8 -0.2,-50.2 -0.3,-50.1 -6,-0.2 c -35.8,-1.3 -91.5,-4.6 -98.5,-5.7 -2.1,-0.4 -14.1,8.8 -69.4,52.7 z" />
  <path
     style="fill:#fff;stroke:none;fill-opacity:1"
     inkscape:connector-curvature="0"
     id="path3384"
     d="m 283.3,757.1 c -18.4,20.3 -33.6,37.4 -33.8,37.9 -0.2,0.5 2.6,0.7 6.5,0.4 3.7,-0.2 17.8,-1.1 31.3,-2 38,-2.4 94.9,-7.8 97.7,-9.3 0.7,-0.4 -11.7,-12.6 -31.8,-31.1 -18.2,-16.8 -33.8,-31 -34.7,-31.7 -1.5,-1.1 -6.1,3.6 -35.2,35.8 z" />
</svg>
